{
  "bookings": [
    {
      "id": "6624490036",
      "dq": "SX1733464331",
      "sourceCity": "BOSTON",
      "destinationCity": "NEW YORK",
      "status": "ACCEPTED BY DRIVER",
      "pickupDate": "2024-12-06",
      "deliveryDate": "2024-12-07",
      "weight": "800 Lbs",
      "volume": "13000 Cbm",
      "bookingType": "Temperature Control",
      "orderReference": "DQ: SX1733464331",
      "po": "-",
      "origin": {
        "id": "477457",
        "name": "JOHN",
        "address": "150 SAINT BOTOLPH ST APT 22",
        "deadline": "2024-12-06 04:00 AM",
        "phone": "8079798977",
        "fax": "-",
        "country": "UNITED STATES OF AMERICA",
        "street": "150 SAINT BOTOLPH ST",
        "suburb": "APT 22",
        "postalCode": "10005",
        "email": "john@gmail.com"
      },
      "destination": {
        "id": "23525",
        "name": "JOHNS",
        "address": "UNION STREET",
        "deadline": "2024-12-07 08:00 AM",
        "phone": "8079798796",
        "fax": "-",
        "country": "UNITED STATES OF AMERICA",
        "street": "UNION STREET",
        "suburb": "",
        "postalCode": "10001",
        "email": "johns@gmail.com"
      },
      "cargoDetails": {
        "packageType": "BOXES",
        "actualWeight": "800 Lbs",
        "actualVolume": "13000 Cbm"
      },
      "referenceDetails": {
        "referenceId": "DQ",
        "referenceName": "Delivery Note",
        "value": "SX1733464331"
      },
      "orderAttributes": {
        "orderType": "Standard",
        "service": "Express",
        "modeOfTransport": "Road",
        "pickupInstructions": "Handle with care"
      },
      "additionalDetails": {
        "paymentMethod": "Credit Card",
        "namedPlace": "Boston Port",
        "equipmentGroup": "Standard",
        "otherLocation": "Warehouse A",
        "trailerNumber": "TR-001",
        "nmfcClass": "Class 70",
        "hazmat": "No",
        "commodityCode": "CC-001"
      },
      "statusHistory": [
        {
          "status": "Accepted by Driver",
          "timestamp": "2024-11-29 05:25:48",
          "isActive": true
        },
        {
          "status": "Gate In",
          "timestamp": "2024-11-29 05:25:10",
          "isActive": false
        }
      ],
      "eta": "2024-12-07 09:00:35",
      "distance": "348 miles",
      "vehicleType": "10W Cabinet (Temperature Control)",
      "vehicleId": "test-1",
      "driverStatus": "ACCEPTED BY DRIVER",
      "co2": "85 kg CO2e"
    },
    {
      "id": "6624490035",
      "dq": "SX1733463734",
      "sourceCity": "VIJAYAWADA",
      "destinationCity": "NEW YORK",
      "status": "ACCEPTED BY DRIVER",
      "pickupDate": "2024-12-06",
      "deliveryDate": "2024-12-07",
      "weight": "8 Lbs",
      "volume": "8 Cbm",
      "bookingType": "Standard",
      "orderReference": "DQ: SX1733463734",
      "po": "PO-2024-001",
      "origin": {
        "id": "477458",
        "name": "VIJAYAWADA WAREHOUSE",
        "address": "123 INDUSTRIAL PARK ROAD",
        "deadline": "2024-12-06 06:00 AM",
        "phone": "8079798978",
        "fax": "-",
        "country": "INDIA",
        "street": "123 INDUSTRIAL PARK ROAD",
        "suburb": "Industrial Area",
        "postalCode": "520001",
        "email": "vijayawada@warehouse.com"
      },
      "destination": {
        "id": "23526",
        "name": "NEW YORK DISTRIBUTION",
        "address": "456 COMMERCE AVENUE",
        "deadline": "2024-12-07 10:00 AM",
        "phone": "8079798797",
        "fax": "-",
        "country": "UNITED STATES OF AMERICA",
        "street": "456 COMMERCE AVENUE",
        "suburb": "Commerce District",
        "postalCode": "10001",
        "email": "ny@distribution.com"
      },
      "cargoDetails": {
        "packageType": "PALLETS",
        "actualWeight": "8 Lbs",
        "actualVolume": "8 Cbm"
      },
      "referenceDetails": {
        "referenceId": "DQ",
        "referenceName": "Delivery Note",
        "value": "SX1733463734"
      },
      "orderAttributes": {
        "orderType": "Standard",
        "service": "Economy",
        "modeOfTransport": "Road",
        "pickupInstructions": "Standard handling"
      },
      "additionalDetails": {
        "paymentMethod": "Bank Transfer",
        "namedPlace": "Vijayawada Port",
        "equipmentGroup": "Standard",
        "otherLocation": "Warehouse B",
        "trailerNumber": "TR-002",
        "nmfcClass": "Class 50",
        "hazmat": "No",
        "commodityCode": "CC-002"
      },
      "statusHistory": [
        {
          "status": "Accepted by Driver",
          "timestamp": "2024-11-29 05:25:48",
          "isActive": true
        }
      ],
      "eta": "2024-12-07 11:30:00",
      "distance": "1250 miles",
      "vehicleType": "Standard Truck",
      "vehicleId": "truck-002",
      "driverStatus": "ACCEPTED BY DRIVER",
      "co2": "62 kg CO2e"
    },
    {
      "id": "6624490034",
      "dq": "SX1733462987",
      "sourceCity": "CHICAGO",
      "destinationCity": "LOS ANGELES",
      "status": "IN TRANSIT",
      "pickupDate": "2024-12-05",
      "deliveryDate": "2024-12-08",
      "weight": "1200 Lbs",
      "volume": "18000 Cbm",
      "bookingType": "Express",
      "orderReference": "DQ: SX1733462987",
      "po": "PO-2024-002",
      "origin": {
        "id": "477459",
        "name": "CHICAGO LOGISTICS",
        "address": "789 FREIGHT WAY",
        "deadline": "2024-12-05 08:00 AM",
        "phone": "8079798979",
        "fax": "-",
        "country": "UNITED STATES OF AMERICA",
        "street": "789 FREIGHT WAY",
        "suburb": "Freight District",
        "postalCode": "60601",
        "email": "chicago@logistics.com"
      },
      "destination": {
        "id": "23527",
        "name": "LA DISTRIBUTION CENTER",
        "address": "321 CARGO STREET",
        "deadline": "2024-12-08 02:00 PM",
        "phone": "8079798798",
        "fax": "-",
        "country": "UNITED STATES OF AMERICA",
        "street": "321 CARGO STREET",
        "suburb": "Cargo District",
        "postalCode": "90001",
        "email": "la@distribution.com"
      },
      "cargoDetails": {
        "packageType": "CONTAINERS",
        "actualWeight": "1200 Lbs",
        "actualVolume": "18000 Cbm"
      },
      "referenceDetails": {
        "referenceId": "DQ",
        "referenceName": "Delivery Note",
        "value": "SX1733462987"
      },
      "orderAttributes": {
        "orderType": "Express",
        "service": "Express",
        "modeOfTransport": "Road",
        "pickupInstructions": "Express handling required"
      },
      "additionalDetails": {
        "paymentMethod": "Credit Card",
        "namedPlace": "Chicago Port",
        "equipmentGroup": "Express",
        "otherLocation": "Express Hub",
        "trailerNumber": "TR-003",
        "nmfcClass": "Class 80",
        "hazmat": "No",
        "commodityCode": "CC-003"
      },
      "statusHistory": [
        {
          "status": "Gate In",
          "timestamp": "2024-11-29 05:25:10",
          "isActive": true
        },
        {
          "status": "Accepted by Driver",
          "timestamp": "2024-11-29 05:25:48",
          "isActive": false
        }
      ],
      "eta": "2024-12-08 14:30:00",
      "distance": "2100 miles",
      "vehicleType": "Express Truck",
      "vehicleId": "express-003",
      "driverStatus": "IN TRANSIT",
      "co2": "125 kg CO2e"
    },
    {
      "id": "6624490033",
      "dq": "SX1733462156",
      "sourceCity": "MIAMI",
      "destinationCity": "ATLANTA",
      "status": "PENDING",
      "pickupDate": "2024-12-07",
      "deliveryDate": "2024-12-08",
      "weight": "500 Lbs",
      "volume": "7500 Cbm",
      "bookingType": "Standard",
      "orderReference": "DQ: SX1733462156",
      "po": "PO-2024-003",
      "origin": {
        "id": "477460",
        "name": "MIAMI PORT",
        "address": "456 HARBOR DRIVE",
        "deadline": "2024-12-07 09:00 AM",
        "phone": "8079798980",
        "fax": "-",
        "country": "UNITED STATES OF AMERICA",
        "street": "456 HARBOR DRIVE",
        "suburb": "Harbor District",
        "postalCode": "33101",
        "email": "miami@port.com"
      },
      "destination": {
        "id": "23528",
        "name": "ATLANTA WAREHOUSE",
        "address": "789 STORAGE LANE",
        "deadline": "2024-12-08 03:00 PM",
        "phone": "8079798799",
        "fax": "-",
        "country": "UNITED STATES OF AMERICA",
        "street": "789 STORAGE LANE",
        "suburb": "Storage District",
        "postalCode": "30301",
        "email": "atlanta@warehouse.com"
      },
      "cargoDetails": {
        "packageType": "CRATES",
        "actualWeight": "500 Lbs",
        "actualVolume": "7500 Cbm"
      },
      "referenceDetails": {
        "referenceId": "DQ",
        "referenceName": "Delivery Note",
        "value": "SX1733462156"
      },
      "orderAttributes": {
        "orderType": "Standard",
        "service": "Standard",
        "modeOfTransport": "Road",
        "pickupInstructions": "Standard handling"
      },
      "additionalDetails": {
        "paymentMethod": "Cash",
        "namedPlace": "Miami Port",
        "equipmentGroup": "Standard",
        "otherLocation": "Warehouse C",
        "trailerNumber": "TR-004",
        "nmfcClass": "Class 60",
        "hazmat": "No",
        "commodityCode": "CC-004"
      },
      "statusHistory": [
        {
          "status": "Gate In",
          "timestamp": "2024-11-29 05:25:10",
          "isActive": true
        },
        {
          "status": "In Transit",
          "timestamp": "2024-11-29 05:25:48",
          "isActive": false
        },
        {
          "status": "Accepted by Driver",
          "timestamp": "2024-11-29 05:26:15",
          "isActive": false
        },
        {
          "status": "Out for Delivery",
          "timestamp": "2024-11-29 05:27:30",
          "isActive": false
        }
      ],
      "eta": "2024-12-08 15:45:00",
      "distance": "660 miles",
      "vehicleType": "Standard Truck",
      "vehicleId": "truck-004",
      "driverStatus": "PENDING",
      "co2": "45 kg CO2e"
    },
    {
      "id": "6624490032",
      "dq": "SX1733461345",
      "sourceCity": "SEATTLE",
      "destinationCity": "PORTLAND",
      "status": "COMPLETED",
      "pickupDate": "2024-12-04",
      "deliveryDate": "2024-12-05",
      "weight": "300 Lbs",
      "volume": "4500 Cbm",
      "bookingType": "Local",
      "orderReference": "DQ: SX1733461345",
      "po": "PO-2024-004",
      "origin": {
        "id": "477461",
        "name": "SEATTLE DISTRIBUTION",
        "address": "123 PUGET SOUND WAY",
        "deadline": "2024-12-04 10:00 AM",
        "phone": "8079798981",
        "fax": "-",
        "country": "UNITED STATES OF AMERICA",
        "street": "123 PUGET SOUND WAY",
        "suburb": "Puget Sound District",
        "postalCode": "98101",
        "email": "seattle@distribution.com"
      },
      "destination": {
        "id": "23529",
        "name": "PORTLAND WAREHOUSE",
        "address": "456 COLUMBIA RIVER ROAD",
        "deadline": "2024-12-05 11:00 AM",
        "phone": "8079798800",
        "fax": "-",
        "country": "UNITED STATES OF AMERICA",
        "street": "456 COLUMBIA RIVER ROAD",
        "suburb": "Columbia District",
        "postalCode": "97201",
        "email": "portland@warehouse.com"
      },
      "cargoDetails": {
        "packageType": "BAGS",
        "actualWeight": "300 Lbs",
        "actualVolume": "4500 Cbm"
      },
      "referenceDetails": {
        "referenceId": "DQ",
        "referenceName": "Delivery Note",
        "value": "SX1733461345"
      },
      "orderAttributes": {
        "orderType": "Local",
        "service": "Local",
        "modeOfTransport": "Road",
        "pickupInstructions": "Local delivery"
      },
      "additionalDetails": {
        "paymentMethod": "Cash",
        "namedPlace": "Seattle Port",
        "equipmentGroup": "Local",
        "otherLocation": "Local Hub",
        "trailerNumber": "TR-005",
        "nmfcClass": "Class 40",
        "hazmat": "No",
        "commodityCode": "CC-005"
      },
      "statusHistory": [
        {
          "status": "Completed",
          "timestamp": "2024-11-29 05:25:00",
          "isActive": true
        },
        {
          "status": "Delivered",
          "timestamp": "2024-11-29 05:24:30",
          "isActive": false
        }
      ],
      "eta": "2024-12-05 10:30:00",
      "distance": "175 miles",
      "vehicleType": "Local Truck",
      "vehicleId": "local-005",
      "driverStatus": "COMPLETED",
      "co2": "40 kg CO2e"
    }
  ],
  "pagination": {
    "currentPage": 1,
    "totalPages": 5,
    "totalItems": 25,
    "itemsPerPage": 10
  }
}
